Chapter 1 Introductory Statistics in R | Introduction to Statistical Modeling
…
A key feature of the tidyverse is the pipe command, %>%.
As an example, consider the case of extracting students with a GPA greater than 3.9:

Take the data frame uadata (read in above) and pipe it (send it) to a function that will filter

Then filter it based on some criteria, say gpa.endyr1 > 3.9.

uadata %>% 
  filter(gpa.endyr1 > 3.9)

## # A tibble: 29 x 5
##       id gpa.endyr1 hs.pct   act  year
##    <dbl>      <dbl>  <dbl> <dbl> <dbl>
##  1   138       3.91     99    28  1996
##  2   139       3.92     93    28  1996
##  3   140       4        99    25  1996
##  4   141       4        92    28  1996
##  5   142       4        99    33  1996
##  6   266       3.92     85    15  1997
##  7   267       3.92     63    23  1997
##  8   268       3.92     98    23  1997
##  9   269       3.93     99    29  1997
## 10   270       3.96     99    29  1997
## # ... with 19 more rows
…
